6
A
B
C
D
E
F
30
A,B,10
A,C,8
A,D,12
A,E,10
A,F,18
B,A,18
B,C,13
B,D,9
B,E,6
B,F,8
C,A,8
C,B,18
C,D,9
C,E,14
C,F,8
D,A,18
D,B,18
D,C,18
D,E,10
D,F,10
E,A,10
E,B,6
E,C,18
E,D,10
E,F,11
F,A,18
F,B,8
F,C,8
F,D,18
F,E,18